<?xml version="1.0" encoding="UTF-8" standalone="no"?>
<svg
   xmlns:dc="http://purl.org/dc/elements/1.1/"
   xmlns:cc="http://creativecommons.org/ns#"
   xmlns:rdf="http://www.w3.org/1999/02/22-rdf-syntax-ns#"
   xmlns:svg="http://www.w3.org/2000/svg"
   xmlns="http://www.w3.org/2000/svg"
   xmlns:sodipodi="http://sodipodi.sourceforge.net/DTD/sodipodi-0.dtd"
   xmlns:inkscape="http://www.inkscape.org/namespaces/inkscape"
   version="1.0"
   width="400.000000pt"
   height="400.000000pt"
   viewBox="0 0 400.000000 400.000000"
   preserveAspectRatio="xMidYMid meet"
   id="svg12"
   sodipodi:docname="gunfighter.svg"
   inkscape:version="1.0.1 (3bc2e813f5, 2020-09-07)">
  <defs
     id="defs16" />
  <sodipodi:namedview
     pagecolor="#ffffff"
     bordercolor="#666666"
     borderopacity="1"
     objecttolerance="10"
     gridtolerance="10"
     guidetolerance="10"
     inkscape:pageopacity="0"
     inkscape:pageshadow="2"
     inkscape:window-width="3840"
     inkscape:window-height="2066"
     id="namedview14"
     showgrid="false"
     inkscape:zoom="1.89"
     inkscape:cx="266.66667"
     inkscape:cy="266.66667"
     inkscape:window-x="-11"
     inkscape:window-y="1669"
     inkscape:window-maximized="1"
     inkscape:current-layer="svg12" />
  <metadata
     id="metadata2">
Created by potrace 1.16, written by Peter Selinger 2001-2019
<rdf:RDF>
  <cc:Work
     rdf:about="">
    <dc:format>image/svg+xml</dc:format>
    <dc:type
       rdf:resource="http://purl.org/dc/dcmitype/StillImage" />
  </cc:Work>
</rdf:RDF>
</metadata>
  <g
     transform="translate(0.000000,400.000000) scale(0.100000,-0.100000)"
     fill="#000000"
     stroke="none"
     id="g10"
     style="fill:#ffffff;fill-opacity:1">
    <path
       d="M1116 3509 c-71 -83 -125 -154 -120 -158 5 -4 196 -167 424 -362 549 -467 1054 -901 1112 -956 l48 -43 -34 -48 c-82 -115 -106 -208 -82 -320 8 -38 24 -88 35 -110 34 -67 132 -182 239 -282 l101 -94 -17 -28 c-40 -63 -119 -142 -226 -228 -132 -104 -151 -134 -143 -215 7 -70 34 -119 98 -183 103 -102 260 -156 384 -132 88 17 149 53 227 133 210 215 312 490 287 779 -13 155 -48 264 -132 417 -52 92 -56 105 -29 97 9 -3 57 -15 105 -26 116 -27 181 -26 237 3 59 30 80 72 80 160 l0 67 -27 -6 c-16 -3 -46 -11 -68 -16 -22 -6 -83 -11 -135 -11 -144 -1 -251 37 -375 131 -49 37 -1283 1093 -1729 1479 -65 57 -121 103 -125 103 -3 0 -64 -68 -135 -151z m1603 -1666 c142 -160 216 -357 191 -508 -5 -32 -12 -60 -14 -63 -9 -8 -129 102 -191 177 -109 130 -138 213 -109 311 15 51 61 129 76 130 3 0 25 -21 47 -47z"
       id="path4"
       style="fill:#ffffff;fill-opacity:1" />
    <path
       d="M2430 3389 c-173 -149 -316 -272 -318 -273 -2 -3 141 -128 274 -240 l32 -26 293 251 c162 138 294 255 294 259 0 10 -246 300 -254 300 -4 0 -148 -122 -321 -271z"
       id="path6"
       style="fill:#ffffff;fill-opacity:1" />
    <path
       d="M1264 2388 c-176 -151 -344 -292 -374 -315 -70 -52 -160 -97 -230 -114 -70 -17 -217 -14 -295 5 -33 8 -63 12 -67 10 -15 -10 -8 -119 11 -160 38 -84 133 -102 316 -60 55 13 102 22 104 20 1 -1 -27 -63 -63 -136 -87 -177 -107 -249 -113 -419 -10 -242 44 -417 192 -624 55 -76 168 -186 221 -213 145 -74 349 -32 485 100 86 83 122 204 84 278 -8 16 -59 64 -113 107 -107 85 -179 155 -227 222 l-32 44 141 141 c193 193 240 276 240 421 -1 92 -23 159 -81 239 -26 37 -33 54 -26 65 5 9 108 101 229 205 120 104 220 192 221 195 2 5 -243 218 -286 249 -17 12 -51 -15 -337 -260z m99 -536 c68 -104 71 -196 9 -303 -36 -61 -238 -279 -259 -279 -16 0 -24 44 -24 125 0 89 14 149 57 241 44 93 161 254 185 254 3 0 18 -17 32 -38z"
       id="path8"
       style="fill:#ffffff;fill-opacity:1" />
  </g>
</svg>
