<?xml version="1.0" encoding="UTF-8" standalone="no"?>
<svg
   xmlns:dc="http://purl.org/dc/elements/1.1/"
   xmlns:cc="http://creativecommons.org/ns#"
   xmlns:rdf="http://www.w3.org/1999/02/22-rdf-syntax-ns#"
   xmlns:svg="http://www.w3.org/2000/svg"
   xmlns="http://www.w3.org/2000/svg"
   xmlns:sodipodi="http://sodipodi.sourceforge.net/DTD/sodipodi-0.dtd"
   xmlns:inkscape="http://www.inkscape.org/namespaces/inkscape"
   version="1.1"
   x="0px"
   y="0px"
   viewBox="0 0 50 50"
   xml:space="preserve"
   id="svg22"
   sodipodi:docname="minigun.svg"
   width="50"
   height="50"
   inkscape:version="1.0.1 (3bc2e813f5, 2020-09-07)"><metadata
     id="metadata28"><rdf:RDF><cc:Work
         rdf:about=""><dc:format>image/svg+xml</dc:format><dc:type
           rdf:resource="http://purl.org/dc/dcmitype/StillImage" /><dc:title></dc:title></cc:Work></rdf:RDF></metadata><defs
     id="defs26" /><sodipodi:namedview
     pagecolor="#ffffff"
     bordercolor="#666666"
     borderopacity="1"
     objecttolerance="10"
     gridtolerance="10"
     guidetolerance="10"
     inkscape:pageopacity="0"
     inkscape:pageshadow="2"
     inkscape:window-width="3840"
     inkscape:window-height="2066"
     id="namedview24"
     showgrid="false"
     inkscape:zoom="16.128"
     inkscape:cx="25"
     inkscape:cy="31.25"
     inkscape:window-x="5989"
     inkscape:window-y="589"
     inkscape:window-maximized="1"
     inkscape:current-layer="svg22" /><g
     id="g16"
     style="fill:#ffffff;fill-opacity:1"><polygon
       points="41.9,2.7 40.3,1.1 39.3,2.1 37,1.3 36.5,1.7 38.1,3.3 37.5,3.9 38.6,5 36.5,7 37.6,8.1 39.7,6 40.7,7.1 38.6,9.1 39.7,10.2 41.8,8.1 42.8,9.2 40.7,11.2 41.8,12.3 43.9,10.2 44.9,11.3 47.7,8.5 46.1,6.9 47.8,5.2 43.6,1 "
       id="polygon2"
       style="fill:#ffffff;fill-opacity:1" /><rect
       x="36.599998"
       y="6.1999998"
       transform="matrix(0.7071,-0.7071,0.7071,0.7071,2.8987,29.8033)"
       width="1.7"
       height="10.4"
       id="rect4"
       style="fill:#ffffff;fill-opacity:1" /><rect
       x="30.299999"
       y="17.6"
       transform="matrix(0.7071,-0.7071,0.7071,0.7071,-2.821,29.8944)"
       width="8.6999998"
       height="1.5"
       id="rect6"
       style="fill:#ffffff;fill-opacity:1" /><rect
       x="28.200001"
       y="15.5"
       transform="matrix(0.7071,-0.7071,0.7071,0.7071,-1.9511,27.7945)"
       width="8.6999998"
       height="1.5"
       id="rect8"
       style="fill:#ffffff;fill-opacity:1" /><rect
       x="26.1"
       y="13.4"
       transform="matrix(0.7071,-0.7071,0.7071,0.7071,-1.0813,25.6945)"
       width="8.6999998"
       height="1.5"
       id="rect10"
       style="fill:#ffffff;fill-opacity:1" /><rect
       x="26.9"
       y="15.9"
       transform="matrix(0.7071,-0.7071,0.7071,0.7071,-6.8011,25.7855)"
       width="1.7"
       height="10.4"
       id="rect12"
       style="fill:#ffffff;fill-opacity:1" /><path
       d="M 2.2,39.3 11.9,49 13.4,43.8 5.5,35.9 Z M 17.3,19.2 c 0.4,0 0.6,0 1,0 L 25.5,13.1 22,9.6 15.9,16.8 c 0,0.4 0,0.6 0,1 l -3.3,3.3 c -0.4,0 -0.6,0 -1,0 l -7.2,6.1 3.5,3.5 6.1,-7.2 c 0,-0.4 0,-0.6 0,-1 l 0.8,-0.8 2.5,2.5 -10.3,10.3 7.4,7.4 1.7,-1.7 3.2,8.3 c 0.2,0.6 1.1,0.6 1.6,0.1 l 3,-3 c 0.3,-0.3 0.3,-0.8 0,-1.1 -0.3,-0.3 -0.8,-0.3 -1.1,0 l -0.3,0.3 -1.4,-3.5 1.8,-1.8 c 1.8,-1.8 1.9,-4.6 0.4,-6.6 l 3.4,-3.4 -1.1,-1.1 2.9,-2.9 -1.1,-1.1 -2.9,2.9 -1,-1 2.9,-2.9 -1.1,-1.1 -2.9,2.9 -1,-1 2.9,-2.9 -1.1,-1.1 -2.9,2.9 -1.1,-1.1 -0.8,0.8 -2.5,-2.5 z m 5.1,19.7 -1.5,1.5 -1.4,-3.6 0.2,-0.2 c 1,1.1 2.5,0.7 2.8,0.4 0.1,-0.1 0.2,-0.3 0.1,-0.4 -0.1,-0.2 -0.3,-0.3 -0.5,-0.2 -0.8,0.3 -1.3,0.1 -1.8,-0.3 l 2.6,-2.6 c 1.1,1.6 0.9,3.9 -0.5,5.4 z m -0.6,-9.5 -4.9,4.9 V 29.6 L 19.5,27 c 0.7,-0.7 1.7,-0.7 2.4,0 0.5,0.7 0.6,1.8 -0.1,2.4 z"
       id="path14"
       style="fill:#ffffff;fill-opacity:1" /></g></svg>
