<?xml version="1.0" encoding="UTF-8" standalone="no"?>
<svg
   xmlns:dc="http://purl.org/dc/elements/1.1/"
   xmlns:cc="http://creativecommons.org/ns#"
   xmlns:rdf="http://www.w3.org/1999/02/22-rdf-syntax-ns#"
   xmlns:svg="http://www.w3.org/2000/svg"
   xmlns="http://www.w3.org/2000/svg"
   xmlns:sodipodi="http://sodipodi.sourceforge.net/DTD/sodipodi-0.dtd"
   xmlns:inkscape="http://www.inkscape.org/namespaces/inkscape"
   version="1.1"
   x="0px"
   y="0px"
   viewBox="0 0 48 48"
   enable-background="new 0 0 48 48"
   xml:space="preserve"
   id="svg16"
   sodipodi:docname="shotgun.svg"
   width="48"
   height="48"
   inkscape:version="1.0.1 (3bc2e813f5, 2020-09-07)"><metadata
     id="metadata22"><rdf:RDF><cc:Work
         rdf:about=""><dc:format>image/svg+xml</dc:format><dc:type
           rdf:resource="http://purl.org/dc/dcmitype/StillImage" /><dc:title></dc:title></cc:Work></rdf:RDF></metadata><defs
     id="defs20" /><sodipodi:namedview
     pagecolor="#ffffff"
     bordercolor="#666666"
     borderopacity="1"
     objecttolerance="10"
     gridtolerance="10"
     guidetolerance="10"
     inkscape:pageopacity="0"
     inkscape:pageshadow="2"
     inkscape:window-width="1918"
     inkscape:window-height="2054"
     id="namedview18"
     showgrid="false"
     units="in"
     inkscape:zoom="5.939697"
     inkscape:cx="68.717904"
     inkscape:cy="9.8474805"
     inkscape:window-x="7910"
     inkscape:window-y="600"
     inkscape:window-maximized="0"
     inkscape:current-layer="svg16" /><path
     d="m 27.731,18.793 3.596,3.618 c -0.274,0.186 -0.647,0.169 -0.892,-0.075 l -2.634,-2.653 c -0.241,-0.244 -0.257,-0.617 -0.07,-0.89 z"
     id="path2"
     style="fill:#ffffff;fill-opacity:1" /><path
     d="m 12.468,12.317 c 0,-0.133 0.053,-0.259 0.146,-0.353 l 1.039,-1.033 1.049,1.055 -1.395,1.385 -0.695,-0.699 c -0.094,-0.095 -0.144,-0.221 -0.144,-0.355 z"
     id="path4"
     style="fill:#ffffff;fill-opacity:1" /><path
     d="m 18.608,19.796 -0.756,-0.762 0.969,-0.963 c 0.195,-0.194 0.197,-0.511 0.002,-0.707 -0.193,-0.195 -0.51,-0.197 -0.707,-0.002 L 17.147,18.325 16.391,17.564 17.36,16.6 c 0.195,-0.194 0.197,-0.511 0.002,-0.707 -0.193,-0.196 -0.51,-0.196 -0.707,-0.002 l -0.969,0.963 -0.758,-0.762 0.971,-0.963 c 0.195,-0.194 0.197,-0.511 0.002,-0.707 -0.193,-0.195 -0.51,-0.197 -0.707,-0.002 l -0.971,0.963 -0.756,-0.762 1.939,-1.927 5.141,5.174 z"
     id="path6"
     style="fill:#ffffff;fill-opacity:1" /><path
     d="m 23.03,20.763 -0.611,1.776 -2.561,-2.575 1.395,-1.386 1.658,1.669 c 0.135,0.136 0.182,0.334 0.119,0.516 z"
     id="path8"
     style="fill:#ffffff;fill-opacity:1" /><path
     d="m 35.641,26.228 -3.328,-3.351 -0.172,0.171 c -0.321,0.32 -0.75,0.496 -1.203,0.496 -0.002,0 -0.004,0 -0.006,0 -0.455,-0.001 -0.883,-0.18 -1.205,-0.503 L 27.091,20.388 C 26.429,19.72 26.433,18.637 27.099,17.975 L 27.271,17.804 15.214,5.671 15.595,5.293 C 15.792,5.099 15.792,4.782 15.597,4.586 15.404,4.39 15.087,4.39 14.89,4.584 L 14.511,4.962 12.913,3.355 C 12.817,3.26 12.692,3.207 12.559,3.207 h -0.002 c -0.133,0 -0.258,0.052 -0.352,0.146 l -1.997,1.984 c -0.094,0.094 -0.147,0.22 -0.147,0.353 0,0.134 0.051,0.26 0.145,0.354 l 3.805,3.827 c 0,10e-4 0,10e-4 0,10e-4 0,0 0,10e-4 0.002,10e-4 l 7.598,7.646 2.01,2.023 c 0.406,0.409 0.543,1.001 0.355,1.546 l -0.67,1.947 c -0.063,0.179 -0.016,0.381 0.117,0.515 0.006,0.005 0.012,0.011 0.016,0.017 l 5.893,5.929 c 0.01,0.01 0.016,0.021 0.023,0.03 l -0.996,0.531 c -0.242,0.129 -0.336,0.432 -0.205,0.676 0.09,0.17 0.262,0.266 0.441,0.266 0.08,0 0.159,-0.02 0.233,-0.059 l 1.047,-0.559 c 0.193,0.512 0.238,1.072 0.07,1.613 l -1.723,5.592 c -0.293,0.949 -0.041,1.977 0.659,2.682 l 4.264,4.291 c 0.15,0.149 0.349,0.232 0.562,0.233 h 0.002 c 0.211,0 0.408,-0.082 0.56,-0.229 0.092,-0.093 0.16,-0.205 0.199,-0.328 L 37.586,34.12 c 0.862,-2.797 0.116,-5.82 -1.945,-7.892 z"
     id="path10"
     style="fill:#ffffff;fill-opacity:1" /></svg>
